3 Results – F1 2024 Analysis
…
# Rank drivers within each constructor
team_rankings <- driver_ratings |>
  group_by(constructor) |>
  arrange(desc(skill_score), .by_group = TRUE) |>
  mutate(predicted_team_rank = row_number()) |>
  ungroup()

team_rankings |>
  select(constructor, predicted_team_rank, driver, skill_score) |>
  arrange(constructor, predicted_team_rank)

# A tibble: 23 × 4
   constructor    predicted_team_rank driver     skill_score
   <chr>                        <int> <chr>            <dbl>
 1 Alpine F1 Team                   1 Doohan              NA
 2 Alpine F1 Team                   2 Gasly               NA
 3 Alpine F1 Team                   3 Ocon                NA
 4 Aston Martin                     1 Alonso              NA
 5 Aston Martin                     2 Stroll              NA
 6 Ferrari                          1 Leclerc             NA
 7 Ferrari                          2 Sainz               NA
 8 Haas F1 Team                     1 Hülkenberg          NA
 9 Haas F1 Team                     2 Magnussen           NA
10 McLaren                          1 Norris              NA
# ℹ 13 more rows
…
